comm_rank,tot_dof_primal,dim_V_1,dim_V_2,dim_V_0,tot_dof_dual,dim_V_n1,dim_V_n2,dim_V_n,cells,faces,edges,vertices
0,4536,2016,1752,768,4272,1752,2016,504,21,21,52,32
1,4536,2016,1752,768,4272,1752,2016,504,21,21,52,32
2,4536,2016,1752,768,4272,1752,2016,504,21,21,52,32
3,4536,2016,1752,768,4272,1752,2016,504,21,21,52,32
4,4536,2016,1752,768,4272,1752,2016,504,21,21,52,32
5,4536,2016,1752,768,4272,1752,2016,504,21,21,52,32
6,4536,2016,1752,768,4272,1752,2016,504,21,21,52,32
7,4536,2016,1752,768,4272,1752,2016,504,21,21,52,32
8,4536,2016,1752,768,4272,1752,2016,504,21,21,52,32
9,4536,2016,1752,768,4272,1752,2016,504,21,21,52,32
10,4536,2016,1752,768,4272,1752,2016,504,21,21,52,32
11,4536,2016,1752,768,4272,1752,2016,504,21,21,52,32
12,4536,2016,1752,768,4272,1752,2016,504,21,21,52,32
13,4536,2016,1752,768,4272,1752,2016,504,21,21,52,32
14,4536,2016,1752,768,4272,1752,2016,504,21,21,52,32
15,4536,2016,1752,768,4272,1752,2016,504,21,21,52,32
16,4536,2016,1752,768,4272,1752,2016,504,21,21,52,32
17,4536,2016,1752,768,4272,1752,2016,504,21,21,52,32
18,4536,2016,1752,768,4272,1752,2016,504,21,21,52,32
19,4536,2016,1752,768,4272,1752,2016,504,21,21,52,32
20,4536,2016,1752,768,4272,1752,2016,504,21,21,52,32
21,4536,2016,1752,768,4272,1752,2016,504,21,21,52,32
22,4536,2016,1752,768,4272,1752,2016,504,21,21,52,32
23,4536,2016,1752,768,4272,1752,2016,504,21,21,52,32
24,4536,2016,1752,768,4272,1752,2016,504,21,21,52,32
25,4536,2016,1752,768,4272,1752,2016,504,21,21,52,32
26,4536,2016,1752,768,4272,1752,2016,504,21,21,52,32
27,4536,2016,1752,768,4272,1752,2016,504,21,21,52,32
28,4632,2064,1776,792,4344,1776,2064,504,21,21,53,33
29,4632,2064,1776,792,4344,1776,2064,504,21,21,53,33
30,4800,2136,1848,816,4512,1848,2136,528,22,22,55,34
31,4632,2064,1776,792,4344,1776,2064,504,21,21,53,33
32,4536,2016,1752,768,4272,1752,2016,504,21,21,52,32
33,4536,2016,1752,768,4272,1752,2016,504,21,21,52,32
34,4536,2016,1752,768,4272,1752,2016,504,21,21,52,32
35,4536,2016,1752,768,4272,1752,2016,504,21,21,52,32
36,4536,2016,1752,768,4272,1752,2016,504,21,21,52,32
37,4536,2016,1752,768,4272,1752,2016,504,21,21,52,32
38,4536,2016,1752,768,4272,1752,2016,504,21,21,52,32
39,4536,2016,1752,768,4272,1752,2016,504,21,21,52,32
40,4536,2016,1752,768,4272,1752,2016,504,21,21,52,32
41,4536,2016,1752,768,4272,1752,2016,504,21,21,52,32
42,4536,2016,1752,768,4272,1752,2016,504,21,21,52,32
43,4536,2016,1752,768,4272,1752,2016,504,21,21,52,32
44,4536,2016,1752,768,4272,1752,2016,504,21,21,52,32
45,4536,2016,1752,768,4272,1752,2016,504,21,21,52,32
46,4536,2016,1752,768,4272,1752,2016,504,21,21,52,32
47,4536,2016,1752,768,4272,1752,2016,504,21,21,52,32
48,4536,2016,1752,768,4272,1752,2016,504,21,21,52,32
49,4536,2016,1752,768,4272,1752,2016,504,21,21,52,32
50,4536,2016,1752,768,4272,1752,2016,504,21,21,52,32
51,4536,2016,1752,768,4272,1752,2016,504,21,21,52,32
52,4536,2016,1752,768,4272,1752,2016,504,21,21,52,32
53,4536,2016,1752,768,4272,1752,2016,504,21,21,52,32
54,4536,2016,1752,768,4272,1752,2016,504,21,21,52,32
55,4536,2016,1752,768,4272,1752,2016,504,21,21,52,32
56,4536,2016,1752,768,4272,1752,2016,504,21,21,52,32
57,4536,2016,1752,768,4272,1752,2016,504,21,21,52,32
58,4536,2016,1752,768,4272,1752,2016,504,21,21,52,32
59,4536,2016,1752,768,4272,1752,2016,504,21,21,52,32
60,4536,2016,1752,768,4272,1752,2016,504,21,21,52,32
61,4536,2016,1752,768,4272,1752,2016,504,21,21,52,32
62,4536,2016,1752,768,4272,1752,2016,504,21,21,52,32
63,4536,2016,1752,768,4272,1752,2016,504,21,21,52,32
