,t_5_arr,dE_dt_3_arr
0,-0.014534883720930232,0.0017564870259481038
1,0.4069767441860465,0.0018363273453093814
2,0.8284883720930233,0.0019161676646706587
3,1.25,0.0020758483033932137
4,1.6715116279069768,0.0023552894211576847
5,2.0930232558139537,0.0027145708582834334
6,2.51453488372093,0.0032335329341317367
7,2.936046511627907,0.0038323353293413173
8,3.3575581395348837,0.004550898203592815
9,3.7790697674418605,0.005469061876247505
10,4.200581395348837,0.006626746506986028
11,4.622093023255814,0.007904191616766467
12,5.0436046511627906,0.009341317365269462
13,5.465116279069767,0.010259481037924153
14,5.886627906976744,0.010778443113772455
15,6.2936046511627906,0.010898203592814371
16,6.715116279069767,0.011017964071856288
17,7.136627906976744,0.01093812375249501
18,7.558139534883721,0.010778443113772455
19,7.979651162790698,0.01065868263473054
20,8.401162790697674,0.010858283433133734
21,8.82267441860465,0.011057884231536927
22,9.244186046511627,0.010698602794411179
23,9.665697674418604,0.010059880239520959
